<?xml version="1.0" encoding="UTF-8"?>
<testsuite name="com.modacruz.service.repository.HttpRequestEntityMongoRepositoryTest" tests="0" skipped="0" failures="0" errors="0" timestamp="1970-01-01T00:00:00" hostname="OZGUR_DEMIREL" time="0.0">
  <properties/>
  <system-out><![CDATA[2015-12-24 15:21:44.539  INFO 28852 --- [    Test worker] o.s.t.c.support.AbstractContextLoader    : Could not detect default resource locations for test class [com.modacruz.service.repository.HttpRequestEntityMongoRepositoryTest]: no resource found for suffixes {-context.xml, Context.groovy}.
2015-12-24 15:21:44.542  INFO 28852 --- [    Test worker] WebAppIntegrationTestContextBootstrapper : Loaded default TestExecutionListener class names from location [META-INF/spring.factories]: [org.springframework.test.context.web.ServletTestExecutionListener, org.springframework.test.context.support.DirtiesContextBeforeModesTestExecutionListener, org.springframework.test.context.support.DependencyInjectionTestExecutionListener, org.springframework.test.context.support.DirtiesContextTestExecutionListener, org.springframework.test.context.transaction.TransactionalTestExecutionListener, org.springframework.test.context.jdbc.SqlScriptsTestExecutionListener]
2015-12-24 15:21:44.542  INFO 28852 --- [    Test worker] WebAppIntegrationTestContextBootstrapper : Using TestExecutionListeners: [org.springframework.test.context.web.ServletTestExecutionListener@663995c3, org.springframework.test.context.support.DirtiesContextBeforeModesTestExecutionListener@42074944, org.springframework.test.context.support.DependencyInjectionTestExecutionListener@5a2c68a5, org.springframework.test.context.support.DirtiesContextTestExecutionListener@2a14edc7, org.springframework.test.context.transaction.TransactionalTestExecutionListener@29f2cb, org.springframework.test.context.jdbc.SqlScriptsTestExecutionListener@789cc6e3]
]]></system-out>
  <system-err><![CDATA[]]></system-err>
</testsuite>
